%YAML 1.1
%TAG !u! tag:unity3d.com,2011:
--- !u!114 &11400000
MonoBehaviour:
  m_ObjectHideFlags: 0
  m_CorrespondingSourceObject: {fileID: 0}
  m_PrefabInstance: {fileID: 0}
  m_PrefabAsset: {fileID: 0}
  m_GameObject: {fileID: 0}
  m_Enabled: 1
  m_EditorHideFlags: 0
  m_Script: {fileID: 11500000, guid: 646401a13f9454095aae97c92dd055b3, type: 3}
  m_Name: Green Smoothie
  m_EditorClassIdentifier: 
  DrinkSprite: {fileID: 21300000, guid: 14bdfadc67b804c669bf7811f0ce5392, type: 3}
  DrinkName: Green Smoothie
  DrinkColour: {r: 0.990566, g: 0.97654855, b: 0.97654855, a: 1}
  Unlocked: 0
  CostPerCup: 6
  MaxPricePerCup: 15
  ShelfLife: 4
  PackQty: 6
  ServesPerHour: 180
  WeatherRatings:
  - Weather: 0
    Rating: 0.8
  - Weather: 1
    Rating: 0.5
  - Weather: 2
    Rating: 0.1
  - Weather: 3
    Rating: 0
  - Weather: 4
    Rating: 0.6
  HealthyRating: 1
  PopularityRating: 0.6
  AddictiveRating: 0.2
