%YAML 1.1
%TAG !u! tag:unity3d.com,2011:
--- !u!114 &11400000
MonoBehaviour:
  m_ObjectHideFlags: 0
  m_CorrespondingSourceObject: {fileID: 0}
  m_PrefabInstance: {fileID: 0}
  m_PrefabAsset: {fileID: 0}
  m_GameObject: {fileID: 0}
  m_Enabled: 1
  m_EditorHideFlags: 0
  m_Script: {fileID: 11500000, guid: f791d9b9e42ad45b28c10a7de84c0134, type: 3}
  m_Name: Fine
  m_EditorClassIdentifier: 
  WeatherName: Fine
  WeatherColour: {r: 0.990566, g: 0.9903201, b: 0.98589355, a: 1}
  WeatherSprite: {fileID: 21300000, guid: 43f99229b8dfb4f94b831cf43e7a93de, type: 3}
  MusicClip: {fileID: 8300000, guid: 3f6bafa05b2c247a2a9fcf4580f5004d, type: 3}
  WeatherType: 0
  OutdoorsFactor: 0
  ThirstyFactor: 0
  ColdDrinkFactor: 0
  HotDrinkFactor: 0
  MinDayTemp: 16
  MaxDayTemp: 24
  MinNightTemp: 0
  MaxNightTemp: 0
