%YAML 1.1
%TAG !u! tag:unity3d.com,2011:
--- !u!1 &8545820051994243667
GameObject:
  m_ObjectHideFlags: 0
  m_CorrespondingSourceObject: {fileID: 0}
  m_PrefabInstance: {fileID: 0}
  m_PrefabAsset: {fileID: 0}
  serializedVersion: 6
  m_Component:
  - component: {fileID: 4135493493702840812}
  m_Layer: 0
  m_Name: Stall3
  m_TagString: Untagged
  m_Icon: {fileID: 0}
  m_NavMeshLayer: 0
  m_StaticEditorFlags: 0
  m_IsActive: 1
--- !u!4 &4135493493702840812
Transform:
  m_ObjectHideFlags: 0
  m_CorrespondingSourceObject: {fileID: 0}
  m_PrefabInstance: {fileID: 0}
  m_PrefabAsset: {fileID: 0}
  m_GameObject: {fileID: 8545820051994243667}
  m_LocalRotation: {x: 0, y: 1, z: 0, w: 0}
  m_LocalPosition: {x: 0, y: 0, z: 0}
  m_LocalScale: {x: 1, y: 1, z: 1}
  m_Children:
  - {fileID: 3303851947289071716}
  m_Father: {fileID: 0}
  m_RootOrder: 0
  m_LocalEulerAnglesHint: {x: 0, y: 180, z: 0}
--- !u!1001 &7539895601270127486
PrefabInstance:
  m_ObjectHideFlags: 0
  serializedVersion: 2
  m_Modification:
    m_TransformParent: {fileID: 4135493493702840812}
    m_Modifications:
    - target: {fileID: -927199367670048503, guid: c600a6bc3b23642e38d3cdab515bc11b,
        type: 3}
      propertyPath: m_Name
      value: Stand3
      objectReference: {fileID: 0}
    - target: {fileID: -4216859302048453862, guid: c600a6bc3b23642e38d3cdab515bc11b,
        type: 3}
      propertyPath: m_LocalPosition.x
      value: 0
      objectReference: {fileID: 0}
    - target: {fileID: -4216859302048453862, guid: c600a6bc3b23642e38d3cdab515bc11b,
        type: 3}
      propertyPath: m_LocalPosition.y
      value: 0
      objectReference: {fileID: 0}
    - target: {fileID: -4216859302048453862, guid: c600a6bc3b23642e38d3cdab515bc11b,
        type: 3}
      propertyPath: m_LocalPosition.z
      value: 0
      objectReference: {fileID: 0}
    - target: {fileID: -4216859302048453862, guid: c600a6bc3b23642e38d3cdab515bc11b,
        type: 3}
      propertyPath: m_LocalRotation.x
      value: 0
      objectReference: {fileID: 0}
    - target: {fileID: -4216859302048453862, guid: c600a6bc3b23642e38d3cdab515bc11b,
        type: 3}
      propertyPath: m_LocalRotation.y
      value: 0
      objectReference: {fileID: 0}
    - target: {fileID: -4216859302048453862, guid: c600a6bc3b23642e38d3cdab515bc11b,
        type: 3}
      propertyPath: m_LocalRotation.z
      value: 0
      objectReference: {fileID: 0}
    - target: {fileID: -4216859302048453862, guid: c600a6bc3b23642e38d3cdab515bc11b,
        type: 3}
      propertyPath: m_LocalRotation.w
      value: 1
      objectReference: {fileID: 0}
    - target: {fileID: -4216859302048453862, guid: c600a6bc3b23642e38d3cdab515bc11b,
        type: 3}
      propertyPath: m_RootOrder
      value: 0
      objectReference: {fileID: 0}
    - target: {fileID: -4216859302048453862, guid: c600a6bc3b23642e38d3cdab515bc11b,
        type: 3}
      propertyPath: m_LocalEulerAnglesHint.x
      value: 0
      objectReference: {fileID: 0}
    - target: {fileID: -4216859302048453862, guid: c600a6bc3b23642e38d3cdab515bc11b,
        type: 3}
      propertyPath: m_LocalEulerAnglesHint.y
      value: 0
      objectReference: {fileID: 0}
    - target: {fileID: -4216859302048453862, guid: c600a6bc3b23642e38d3cdab515bc11b,
        type: 3}
      propertyPath: m_LocalEulerAnglesHint.z
      value: 0
      objectReference: {fileID: 0}
    m_RemovedComponents: []
  m_SourcePrefab: {fileID: 100100000, guid: c600a6bc3b23642e38d3cdab515bc11b, type: 3}
--- !u!4 &3303851947289071716 stripped
Transform:
  m_CorrespondingSourceObject: {fileID: -4216859302048453862, guid: c600a6bc3b23642e38d3cdab515bc11b,
    type: 3}
  m_PrefabInstance: {fileID: 7539895601270127486}
  m_PrefabAsset: {fileID: 0}
