%YAML 1.1
%TAG !u! tag:unity3d.com,2011:
--- !u!114 &11400000
MonoBehaviour:
  m_ObjectHideFlags: 0
  m_CorrespondingSourceObject: {fileID: 0}
  m_PrefabInstance: {fileID: 0}
  m_PrefabAsset: {fileID: 0}
  m_GameObject: {fileID: 0}
  m_Enabled: 1
  m_EditorHideFlags: 0
  m_Script: {fileID: 11500000, guid: 07c03a396c2934329a944e90ca38168e, type: 3}
  m_Name: IcedTeaInventory
  m_EditorClassIdentifier: 
  Drink: {fileID: 11400000, guid: 62b211ed2fb58412babe814e2ed528c6, type: 2}
  Spoilt: 0
  OnOrder: 0
  ToOrder: 0
  Receipts: []
